cnn.com, 157.166.226.25
nifty.com, 222.158.213.148
tianya.cn, 124.225.65.154
softonic.com, 46.28.209.20
imageshack.us, 208.94.0.47
alipay.com, 110.76.19.33
zynga.com, 54.148.147.56
mywebsearch.com, 74.113.237.48
hp.com, 15.216.241.18
walmart.com, 161.170.248.20
ebay.de, 66.211.181.20
youdao.com, 61.135.218.27
pconline.com.cn, 219.136.245.40
partypoker.com, 88.81.155.145
odnoklassniki.ru, 217.20.155.58
360.cn, 125.88.190.56
hotmail.com, 157.55.152.112
jp.msn.com, 23.101.196.141
craigslist.org, 208.82.238.129
weather.com, 96.8.82.132
blogger.com, 216.58.192.9
vkontakte.ru, 95.213.4.245
soku.com, 43.250.12.57
renren.com, 220.181.181.224
alibaba.com, 205.204.101.42
hotfile.com, 199.184.144.150
answers.com, 67.196.156.65
rapidshare.com, 10.11.12.13
2345.com, 42.62.30.180
daum.net, 114.108.157.50
photobucket.com, 209.17.80.100
mediafire.com, 205.196.120.13
seesaa.net, 59.106.98.139
ifeng.com, 210.51.19.61
ehow.com, 23.227.11.12
goo.ne.jp, 153.254.147.65
paipai.com, 163.177.72.179
yandex.ru, 77.88.55.66
bbc.co.uk, 212.58.246.104
mail.ru, 217.69.139.200
myspace.com, 63.135.90.70
livedoor.jp, 125.6.149.67
cnet.com, 64.30.224.118
go.com, 199.181.131.249
4399.com, 118.184.184.70
orkut.com, 173.194.202.86
ameblo.jp, 180.233.142.129
skype.com, 91.190.216.21
naver.com, 202.179.177.22
flickr.com, 69.147.76.173
4shared.com, 204.155.149.31
amazon.co.jp, 54.240.248.0
linkedin.com, 108.174.5.129
facebook.com, 173.252.90.132
youtube.com, 216.58.192.46
imdb.com, 72.21.210.29
amazon.com, 176.32.98.166
dailymotion.com, 195.8.215.139
aol.com, 149.174.107.97
yahoo.com, 98.138.253.109
apple.com, 17.172.224.47
wordpress.com, 192.0.78.17
tudou.com, 123.126.98.147
live.com, 65.55.206.154
wikipedia.org, 198.35.26.96
yahoo.co.jp, 182.22.59.229
sohu.com, 123.125.116.19
qiyi.com, 101.227.22.158
blogspot.com, 216.58.192.41
kugou.com, 14.18.236.182
msn.com, 23.101.196.141
baidu.com, 180.149.132.47
qq.com, 163.177.65.160
taobao.com, 110.75.115.70
hao123.com, 180.149.132.19
windows.com, 104.40.191.237
microsoft.com, 23.100.122.175
bing.com, 204.79.197.200
sina.com.cn, 202.108.33.60
ebay.com, 66.211.160.86
fc2.com, 54.153.95.83
soso.com, 106.120.151.169
paypal.com, 66.211.169.66
163.com, 123.58.180.8
ask.com, 66.235.120.127
adobe.com, 192.150.16.117
twitter.com, 199.59.150.7
mozilla.com, 63.245.213.24
sogou.com, 106.120.188.48
youku.com, 220.181.185.141
tmall.com, 140.205.130.99
www.google.com, 216.58.217.196
sdjjdsaf.com,
ku6.com, 122.11.45.243
rakuten.co.jp, 133.237.48.124
about.com, 207.241.148.80
orkut.com.br, 74.125.20.85
pps.tv, 58.83.190.154
xunlei.com, 182.118.18.100
7k7k.com, 115.182.59.33
wmfo.org, 23.92.21.128
andysayler.com, 162.243.49.20
56.com, 180.153.21.176
